Prime,2,2,5,5,13,13,17,17,29,29,37,37,41,41,53,53,61,61,73,73,89,89,97,97,101,101,109,109,113,113,137,137,149,149,157,157,173,173,181,181,193,193,197,197,229,229,233,233,241,241,257,257,269,269,277,277,281,281,293,293,313,313,317,317,337,337,349,349,353,353,373,373,389,389,397,397,401,401,409,409,421,421,433,433,449,449,457,457,461,461,509,509,521,521,541,541,557,557,569,569,577,577,593,593,601,601,613,613,617,617,641,641,653,653,661,661,673,673,677,677,701,701,709,709,733,733,757,757,761,761,769,769,773,773,797,797,809,809,821,821,829,829,853,853,857,857,877,877,881,881,929,929,937,937,941,941,953,953,977,977,997,997,1009,1009,1013,1013,1021,1021,1033,1033,1049,1049,1061,1061,1069,1069,1093,1093,1097,1097,1109,1109,1117,1117,1129,1129,1153,1153,1181,1181,1193,1193,1201,1201,1213,1213,1217,1217
0,,,1,2,1,6,1,8,1,14,1,18,1,20,1,26,1,30,1,36,1,44,1,48,1,50,1,54,1,56,1,68,1,74,1,78,1,86,1,90,1,96,1,98,1,114,1,116,1,120,1,128,1,134,1,138,1,140,1,146,1,156,1,158,1,168,1,174,1,176,1,186,1,194,1,198,1,200,1,204,1,210,1,216,1,224,1,228,1,230,1,254,1,260,1,270,1,278,1,284,1,288,1,296,1,300,1,306,1,308,1,320,1,326,1,330,1,336,1,338,1,350,1,354,1,366,1,378,1,380,1,384,1,386,1,398,1,404,1,410,1,414,1,426,1,428,1,438,1,440,1,464,1,468,1,470,1,476,1,488,1,498,1,504,1,506,1,510,1,516,1,524,1,530,1,534,1,546,1,548,1,554,1,558,1,564,1,576,1,590,1,596,1,600,1,606,1,608
1,,,2,0,2,0,2,0,2,0,2,0,2,0,2,0,2,0,2,0,2,0,2,0,2,0,2,0,2,0,2,0,2,0,2,0,2,0,2,0,2,0,2,0,2,0,2,0,2,0,2,0,2,0,2,0,2,0,2,0,2,0,2,0,2,0,2,0,2,0,2,0,2,0,2,0,2,0,2,0,2,0,2,0,2,0,2,0,2,0,2,0,2,0,2,0,2,0,2,0,2,0,2,0,2,0,2,0,2,0,2,0,2,0,2,0,2,0,2,0,2,0,2,0,2,0,2,0,2,0,2,0,2,0,2,0,2,0,2,0,2,0,2,0,2,0,2,0,2,0,2,0,2,0,2,0,2,0,2,0,2,0,2,0,2,0,2,0,2,0,2,0,2,0,2,0,2,0,2,0,2,0,2,0,2,0,2,0,2,0,2,0,2,0,2,0,2,0
2,,,,,3,0,4,0,4,2,3,0,4,0,4,2,3,0,3,0,4,0,3,0,4,6,3,0,4,0,4,0,4,-6,3,0,4,6,3,0,3,0,4,2,3,0,4,0,3,0,4,0,4,-10,3,0,4,0,4,-6,3,0,4,-2,3,0,3,0,4,0,3,0,4,-18,3,0,4,0,3,0,3,0,3,0,4,0,3,0,4,2,4,2,4,0,3,0,4,2,4,0,3,0,4,0,3,0,3,0,4,0,4,0,4,-10,3,0,3,0,4,10,4,14,3,0,3,0,3,0,4,0,3,0,4,6,4,-10,4,0,4,6,3,0,3,0,4,0,3,0,4,0,4,0,3,0,4,18,4,0,4,0,3,0,3,0,4,10,3,0,3,0,4,0,4,-10,3,0,3,0,4,0,4,-14,3,0,3,0,3,0,4,-14,4,0,3,0,3,0,4,0
3,,,,,4,-2,8,0,7,0,4,-2,5,0,13,0,4,-2,4,0,8,-12,4,0,5,0,4,-10,7,0,8,4,37,0,4,-2,43,0,4,-14,4,0,7,0,4,-6,8,-36,4,0,8,0,67,0,4,6,5,0,73,0,4,0,79,0,4,0,4,6,8,0,4,-6,97,0,4,-2,5,0,4,0,4,-2,4,0,7,0,4,0,5,0,127,0,5,0,4,-22,139,0,8,-4,4,0,8,0,4,0,4,-14,7,0,5,0,163,0,4,-6,4,0,13,0,5,0,4,-2,4,6,4,-30,5,0,4,0,193,0,199,0,8,28,5,0,4,-22,4,-6,8,28,4,10,5,0,8,0,4,0,5,0,7,0,8,0,4,10,4,0,11,0,4,2,4,0,8,4,5,0,4,-6,4,-38,8,12,277,0,4,-26,4,0,4,0,5,0,8,12,4,0,4,-10,8,0
4,,,,,6,0,,,14,0,6,0,8,-4,26,0,5,0,6,0,11,0,6,0,10,0,6,0,8,0,17,0,74,0,6,0,86,0,5,0,6,0,14,0,6,0,29,0,5,0,16,0,134,0,6,0,7,0,146,0,6,0,158,0,6,0,6,0,11,0,6,0,194,0,6,0,8,0,6,0,5,0,6,0,8,0,6,0,10,0,254,0,8,20,5,0,278,0,71,0,6,0,16,-8,5,0,6,0,8,20,8,0,326,0,5,0,6,0,26,0,7,0,6,0,6,0,6,0,8,12,6,0,386,0,398,0,101,0,10,0,6,0,6,0,107,0,6,0,8,0,16,0,6,0,10,0,8,20,16,8,6,0,6,0,22,0,5,0,6,0,131,0,10,0,6,0,6,0,137,0,554,0,6,0,6,0,6,0,10,0,149,0,5,0,6,0,16,0
5,,,,,,,,,,,9,0,10,0,,,6,0,8,-12,22,0,8,0,20,4,9,0,14,0,34,0,,,12,-4,,,6,0,8,0,28,12,12,-12,58,0,6,0,32,0,,,12,0,8,-4,,,8,-12,,,7,0,12,24,16,0,12,12,,,9,0,10,0,8,-28,6,0,8,0,14,0,8,-4,20,8,,,10,0,6,0,,,142,0,8,0,37,0,6,0,9,0,11,0,10,0,,,6,0,7,0,52,-36,10,0,12,-16,12,12,7,0,10,0,8,0,,,,,202,0,20,-56,9,0,12,12,214,0,12,44,10,0,29,0,8,4,20,-8,14,0,61,0,12,-16,7,0,23,0,6,0,8,-28,262,0,20,20,12,24,7,0,274,0,,,9,0,8,12,8,0,20,-56,298,0,6,0,12,-20,19,0
6,,,,,,,,,,,12,-4,20,0,,,10,0,9,0,44,0,12,0,25,0,12,4,16,-8,68,0,,,13,0,,,9,0,12,0,49,0,19,0,116,0,8,0,64,0,,,23,0,10,0,,,12,0,,,8,0,29,0,22,0,31,0,,,11,0,16,-8,12,0,7,0,9,0,16,0,12,0,23,0,,,13,0,9,0,,,284,0,9,0,74,0,8,-60,12,-16,14,0,16,0,,,10,0,8,0,169,0,14,0,59,0,61,0,9,0,19,0,12,0,,,,,404,0,41,0,12,28,71,0,428,0,73,0,11,0,32,-48,9,0,47,0,17,0,122,0,83,0,8,0,44,-32,10,0,12,0,524,0,53,0,89,0,12,-28,548,0,,,12,-52,12,0,9,0,59,0,596,0,8,0,101,0,32,0
7,,,,,,,,,,,18,0,,,,,12,-4,12,0,,,16,0,50,0,18,0,28,0,,,,,26,0,,,10,0,16,0,98,0,38,0,,,10,0,128,0,,,46,0,14,0,,,13,0,,,12,0,58,0,32,-16,62,0,,,12,8,20,0,17,0,10,0,12,0,28,0,19,0,46,0,,,20,0,10,0,,,,,12,0,148,0,10,0,17,0,22,0,20,0,,,11,0,12,0,338,0,20,16,118,0,122,0,12,-12,20,0,16,0,,,,,,,82,0,18,0,142,0,,,146,0,16,-104,58,0,12,0,94,0,28,0,244,0,166,0,9,0,46,0,12,-20,24,64,,,106,0,178,0,13,0,,,,,18,0,24,0,12,0,118,0,,,10,0,202,0,38,0
8,,,,,,,,,,,,,,,,,15,0,18,0,,,24,0,,,27,0,56,0,,,,,39,0,,,12,-4,24,0,,,57,0,,,12,0,,,,,69,0,20,0,,,24,0,,,14,0,87,0,44,0,93,0,,,18,0,25,0,24,-56,12,20,16,-56,32,0,24,-8,92,-48,,,26,0,12,4,,,,,16,0,296,0,12,0,18,0,28,0,32,0,,,12,24,14,0,,,25,0,177,0,183,0,14,0,38,0,24,0,,,,,,,164,-252,23,0,213,0,,,219,0,20,0,116,0,13,0,188,-112,34,0,488,0,249,0,12,0,92,-56,15,0,43,0,,,212,-96,267,0,14,0,,,,,31,0,47,0,16,0,236,-104,,,12,0,303,0,64,-32
9,,,,,,,,,,,,,,,,,20,-8,24,0,,,32,-16,,,36,-12,,,,,,,52,-24,,,15,0,32,0,,,76,-32,,,15,0,,,,,92,-52,28,0,,,26,0,,,16,-56,116,-64,88,0,124,-56,,,22,0,40,0,34,0,14,0,18,0,56,0,38,0,115,0,,,40,-40,15,0,,,,,18,0,,,15,0,34,0,44,0,40,0,,,15,0,16,0,,,28,-28,236,-116,244,-128,18,0,40,8,32,0,,,,,,,205,0,36,-60,284,-136,,,292,-156,22,0,232,0,18,0,235,0,56,8,,,332,-176,14,0,253,0,17,0,86,0,,,265,0,356,-172,21,0,,,,,36,-84,94,0,18,0,295,0,,,15,0,404,-192,76,0
10,,,,,,,,,,,,,,,,,30,0,36,0,,,48,0,,,54,0,,,,,,,78,0,,,18,0,48,0,,,114,0,,,16,-8,,,,,138,0,35,0,,,39,0,,,21,0,174,0,176,0,186,0,,,33,0,50,0,51,0,15,0,24,0,64,-32,57,0,230,0,,,52,0,18,0,,,,,24,0,,,20,0,36,12,56,-48,64,0,,,20,-24,21,0,,,35,0,354,0,366,0,21,0,76,0,48,0,,,,,,,410,0,46,0,426,0,,,438,0,40,0,464,0,24,8,470,0,68,0,,,498,0,16,72,506,0,20,48,129,0,,,530,0,534,0,26,0,,,,,62,0,141,0,24,0,590,0,,,16,-24,606,0,152,0
11,,,,,,,,,,,,,,,,,,,,,,,,,,,,,,,,,,,,,,,20,-16,64,-32,,,,,,,20,0,,,,,,,40,-16,,,52,0,,,24,0,,,,,,,,,36,-24,80,-32,68,0,20,-8,27,0,112,0,76,0,,,,,65,0,20,-28,,,,,32,0,,,24,-24,51,0,77,0,80,0,,,22,0,24,0,,,50,0,,,,,27,0,95,0,64,0,,,,,,,,,69,0,,,,,,,44,0,,,26,0,,,119,0,,,,,18,0,,,30,0,172,0,,,,,,,28,-4,,,,,93,0,188,0,32,0,,,,,20,0,,,304,0
12,,,,,,,,,,,,,,,,,,,,,,,,,,,,,,,,,,,,,,,30,0,96,0,,,,,,,24,0,,,,,,,56,-24,,,78,0,,,28,0,,,,,,,,,44,-20,100,0,102,0,21,0,36,0,224,0,114,0,,,,,104,-72,27,0,,,,,36,0,,,25,0,68,48,88,24,128,64,,,30,0,28,0,,,70,0,,,,,28,-68,152,-88,96,0,,,,,,,,,92,-116,,,,,,,55,0,,,36,0,,,136,48,,,,,21,0,,,34,0,258,0,,,,,,,39,0,,,,,124,88,282,0,36,0,,,,,24,0,,,608,0
13,,,,,,,,,,,,,,,,,,,,,,,,,,,,,,,,,,,,,,,36,0,,,,,,,,,30,0,,,,,,,70,0,,,104,-40,,,42,0,,,,,,,,,66,0,200,0,136,-40,28,16,48,32,,,152,-72,,,,,130,0,30,0,,,,,48,0,,,30,0,102,0,154,0,160,0,,,33,0,32,48,,,100,-80,,,,,36,-48,190,0,128,0,,,,,,,,,138,0,,,,,,,80,-96,,,39,0,,,238,0,,,,,24,0,,,51,0,344,-144,,,,,,,42,0,,,,,186,0,376,-200,48,0,,,,,25,0,,,,
14,,,,,,,,,,,,,,,,,,,,,,,,,,,,,,,,,,,,,,,45,0,,,,,,,,,40,0,,,,,,,140,0,,,156,0,,,48,-16,,,,,,,,,99,0,,,204,0,30,0,54,0,,,228,0,,,,,260,0,36,-72,,,,,64,32,,,40,40,153,0,308,0,320,0,,,44,-16,42,0,,,140,-72,,,,,42,0,380,0,192,0,,,,,,,,,207,0,,,,,,,88,0,,,52,0,,,476,0,,,,,28,0,,,60,0,516,0,,,,,,,52,-92,,,,,279,0,564,0,64,0,,,,,30,0,,,,
15,,,,,,,,,,,,,,,,,,,,,,,,,,,,,,,,,,,,,,,60,4,,,,,,,,,48,-16,,,,,,,,,,,,,,,56,0,,,,,,,,,132,-52,,,,,35,0,72,0,,,,,,,,,,,45,0,,,,,72,0,,,50,0,204,-120,,,,,,,55,0,48,0,,,175,0,,,,,54,0,,,256,-128,,,,,,,,,276,-28,,,,,,,110,0,,,72,24,,,,,,,,,36,0,,,68,-36,,,,,,,,,78,0,,,,,372,-196,,,72,0,,,,,40,0,,,,
16,,,,,,,,,,,,,,,,,,,,,,,,,,,,,,,,,,,,,,,90,0,,,,,,,,,60,0,,,,,,,,,,,,,,,84,0,,,,,,,,,198,0,,,,,42,0,108,0,,,,,,,,,,,54,0,,,,,96,0,,,60,0,306,0,,,,,,,60,-24,56,0,,,350,0,,,,,63,0,,,384,0,,,,,,,,,414,0,,,,,,,176,16,,,78,0,,,,,,,,,42,0,,,85,0,,,,,,,,,84,-140,,,,,558,0,,,96,0,,,,,48,48,,,,
17,,,,,,,,,,,,,,,,,,,,,,,,,,,,,,,,,,,,,,,,,,,,,,,,,80,-32,,,,,,,,,,,,,,,112,0,,,,,,,,,,,,,,,60,-40,144,-48,,,,,,,,,,,60,16,,,,,144,0,,,75,0,,,,,,,,,66,0,84,0,,,,,,,,,84,-16,,,,,,,,,,,,,,,,,,,,,220,0,,,104,-56,,,,,,,,,48,0,,,102,0,,,,,,,,,91,0,,,,,,,,,128,-192,,,,,50,0,,,,
18,,,,,,,,,,,,,,,,,,,,,,,,,,,,,,,,,,,,,,,,,,,,,,,,,120,0,,,,,,,,,,,,,,,168,0,,,,,,,,,,,,,,,70,0,216,0,,,,,,,,,,,90,0,,,,,192,-128,,,100,0,,,,,,,,,110,0,96,0,,,,,,,,,108,-72,,,,,,,,,,,,,,,,,,,,,440,0,,,117,0,,,,,,,,,56,0,,,170,0,,,,,,,,,156,-232,,,,,,,,,144,0,,,,,60,0,,,,
19,,,,,,,,,,,,,,,,,,,,,,,,,,,,,,,,,,,,,,,,,,,,,,,,,,,,,,,,,,,,,,,,,,,,,,,,,,,,,,,,,84,8,,,,,,,,,,,,,108,-72,,,,,288,0,,,120,-16,,,,,,,,,132,-68,112,0,,,,,,,,,126,0,,,,,,,,,,,,,,,,,,,,,,,,,156,0,,,,,,,,,63,0,,,204,156,,,,,,,,,182,0,,,,,,,,,192,0,,,,,75,0,,,,
20,,,,,,,,,,,,,,,,,,,,,,,,,,,,,,,,,,,,,,,,,,,,,,,,,,,,,,,,,,,,,,,,,,,,,,,,,,,,,,,,,105,0,,,,,,,,,,,,,135,0,,,,,,,,,150,0,,,,,,,,,165,0,168,0,,,,,,,,,189,0,,,,,,,,,,,,,,,,,,,,,,,,,234,0,,,,,,,,,72,0,,,255,0,,,,,,,,,273,0,,,,,,,,,288,0,,,,,80,-176,,,,
21,,,,,,,,,,,,,,,,,,,,,,,,,,,,,,,,,,,,,,,,,,,,,,,,,,,,,,,,,,,,,,,,,,,,,,,,,,,,,,,,,140,-76,,,,,,,,,,,,,180,12,,,,,,,,,200,-80,,,,,,,,,220,-64,224,-160,,,,,,,,,252,48,,,,,,,,,,,,,,,,,,,,,,,,,312,-112,,,,,,,,,84,0,,,340,-184,,,,,,,,,364,-48,,,,,,,,,384,0,,,,,100,0,,,,
22,,,,,,,,,,,,,,,,,,,,,,,,,,,,,,,,,,,,,,,,,,,,,,,,,,,,,,,,,,,,,,,,,,,,,,,,,,,,,,,,,210,0,,,,,,,,,,,,,270,0,,,,,,,,,300,0,,,,,,,,,330,0,336,0,,,,,,,,,378,0,,,,,,,,,,,,,,,,,,,,,,,,,468,0,,,,,,,,,112,-16,,,510,0,,,,,,,,,546,0,,,,,,,,,576,0,,,,,120,0,,,,
23,,,,,,,,,,,,,,,,,,,,,,,,,,,,,,,,,,,,,,,,,,,,,,,,,,,,,,,,,,,,,,,,,,,,,,,,,,,,,,,,,,,,,,,,,,,,,,,,,,,,,,,,,,,,,,,,,,,,,,,,,,,,,,,,,,,,,,,,,,,,,,,,,,,,,,,,,,,,,,,,,,,126,0,,,,,,,,,,,,,,,,,,,,,,,,,,,,,150,0,,,,
24,,,,,,,,,,,,,,,,,,,,,,,,,,,,,,,,,,,,,,,,,,,,,,,,,,,,,,,,,,,,,,,,,,,,,,,,,,,,,,,,,,,,,,,,,,,,,,,,,,,,,,,,,,,,,,,,,,,,,,,,,,,,,,,,,,,,,,,,,,,,,,,,,,,,,,,,,,,,,,,,,,,144,-144,,,,,,,,,,,,,,,,,,,,,,,,,,,,,200,0,,,,
25,,,,,,,,,,,,,,,,,,,,,,,,,,,,,,,,,,,,,,,,,,,,,,,,,,,,,,,,,,,,,,,,,,,,,,,,,,,,,,,,,,,,,,,,,,,,,,,,,,,,,,,,,,,,,,,,,,,,,,,,,,,,,,,,,,,,,,,,,,,,,,,,,,,,,,,,,,,,,,,,,,,168,0,,,,,,,,,,,,,,,,,,,,,,,,,,,,,240,32,,,,
26,,,,,,,,,,,,,,,,,,,,,,,,,,,,,,,,,,,,,,,,,,,,,,,,,,,,,,,,,,,,,,,,,,,,,,,,,,,,,,,,,,,,,,,,,,,,,,,,,,,,,,,,,,,,,,,,,,,,,,,,,,,,,,,,,,,,,,,,,,,,,,,,,,,,,,,,,,,,,,,,,,,252,0,,,,,,,,,,,,,,,,,,,,,,,,,,,,,300,0,,,,
27,,,,,,,,,,,,,,,,,,,,,,,,,,,,,,,,,,,,,,,,,,,,,,,,,,,,,,,,,,,,,,,,,,,,,,,,,,,,,,,,,,,,,,,,,,,,,,,,,,,,,,,,,,,,,,,,,,,,,,,,,,,,,,,,,,,,,,,,,,,,,,,,,,,,,,,,,,,,,,,,,,,336,-224,,,,,,,,,,,,,,,,,,,,,,,,,,,,,400,0,,,,
28,,,,,,,,,,,,,,,,,,,,,,,,,,,,,,,,,,,,,,,,,,,,,,,,,,,,,,,,,,,,,,,,,,,,,,,,,,,,,,,,,,,,,,,,,,,,,,,,,,,,,,,,,,,,,,,,,,,,,,,,,,,,,,,,,,,,,,,,,,,,,,,,,,,,,,,,,,,,,,,,,,,504,0,,,,,,,,,,,,,,,,,,,,,,,,,,,,,600,0,,,,
