Class numbers:

{2: 1, 3: 1, 5: 2, 7: 1, 11: 1, 13: 2, 17: 4, 19: 1, 23: 3, 29: 6, 31: 3, 37: 2, 41: 8, 43: 1, 47: 5, 53: 6, 59: 3, 61: 6, 67: 1, 71: 7, 73: 4, 79: 5, 83: 3, 89: 12, 97: 4, 101: 14, 103: 5, 107: 3, 109: 6, 113: 8, 127: 5, 131: 5, 137: 8, 139: 3, 149: 14, 151: 7, 157: 6, 163: 1, 167: 11, 173: 14, 179: 5, 181: 10, 191: 13, 193: 4, 197: 10, 199: 9, 211: 3, 223: 7, 227: 5, 229: 10
}

